<svg id="twitter" xmlns="http://www.w3.org/2000/svg" width="32" height="32" viewBox="0 0 32 32">
  <circle id="Elipse_3" data-name="Elipse 3" cx="16" cy="16" r="16" fill="none"/>
  <path id="Trazado_10" data-name="Trazado 10" d="M25.051,5.935a9.572,9.572,0,0,1-2.742.751,4.791,4.791,0,0,0,2.1-2.642A9.542,9.542,0,0,1,21.377,5.2a4.775,4.775,0,0,0-8.136,4.355A13.557,13.557,0,0,1,3.4,4.568a4.782,4.782,0,0,0,1.477,6.375,4.759,4.759,0,0,1-2.162-.6v.059a4.778,4.778,0,0,0,3.829,4.682,4.807,4.807,0,0,1-2.157.082,4.778,4.778,0,0,0,4.461,3.317,9.584,9.584,0,0,1-7.068,1.977A13.507,13.507,0,0,0,9.1,22.611,13.494,13.494,0,0,0,22.684,9.024c0-.206-.006-.413-.015-.617a9.7,9.7,0,0,0,2.383-2.472Z" transform="translate(2.585 2.857)"/>
</svg>
